dump.vcd
$date
	Tue Mar 10 16:32:57 2026
$end
$version
	Icarus Verilog
$end
$timescale
	1ps
$end
$scope module test $end
$var wire 2 ! mult_sel [1:0] $end
$var wire 16 " led [15:0] $end
$var wire 2 # demult_sel [1:0] $end
$var wire 4 $ current_mult [3:0] $end
$var wire 4 % current_demult [3:0] $end
$var reg 1 & btnc $end
$var reg 1 ' btnd $end
$var reg 1 ( btnl $end
$var reg 1 ) btnr $end
$var reg 1 * btnu $end
$var reg 1 + fail $end
$var reg 5 , i [4:0] $end
$var reg 16 - sw [15:0] $end
$scope module uut $end
$var wire 1 & btnC $end
$var wire 1 ' btnD $end
$var wire 1 ( btnL $end
$var wire 1 ) btnR $end
$var wire 1 * btnU $end
$var wire 16 . sw [15:0] $end
$var wire 4 / school [3:0] $end
$var wire 4 0 rib_shack [3:0] $end
$var wire 2 1 mux_sel [1:0] $end
$var wire 4 2 local_lib [3:0] $end
$var wire 16 3 led [15:0] $end
$var wire 4 4 internet_data [3:0] $end
$var wire 4 5 fire_dept [3:0] $end
$var wire 2 6 demux_sel [1:0] $end
$upscope $end
$upscope $end
$enddefinitions $end
$comment Show the parameter values. $end
$dumpall
$end
#0
$dumpvars
b0 6
b0 5
b0 4
b0 3
b0 2
b0 1
b0 0
b0 /
b110101001011001 .
b110101001011001 -
bx ,
0+
0*
0)
0(
0'
0&
b0 %
b1001 $
b0 #
b0 "
b0 !
$end
#10000
b1001 %
b1001 "
b1001 3
b1001 2
b1001 4
b0 ,
1&
#20000
b1 ,
#30000
b101 %
b101 "
b101 3
b101 2
b101 $
b101 4
b10 ,
b1 !
b1 1
1(
#40000
b1010 %
b1010 "
b1010 3
b1010 2
b1010 $
b1010 4
b11 ,
1*
b10 !
b10 1
0(
#50000
b110 %
b110 "
b110 3
b110 2
b110 4
b110 $
b100 ,
b11 !
b11 1
1(
#60000
b1001 %
b0 2
b10010000 "
b10010000 3
b1001 5
b1001 4
b1001 $
b101 ,
b1 #
b1 6
1'
0*
b0 !
b0 1
0(
#70000
b101 %
b1010000 "
b1010000 3
b101 5
b101 $
b101 4
b110 ,
b1 !
b1 1
1(
#80000
b1010 %
b10100000 "
b10100000 3
b1010 5
b1010 $
b1010 4
b111 ,
1*
b10 !
b10 1
0(
#90000
b110 %
b1100000 "
b1100000 3
b110 5
b110 4
b110 $
b1000 ,
b11 !
b11 1
1(
#100000
b1001 /
b1001 %
b100100000000 "
b100100000000 3
b0 5
b1001 4
b1001 $
b1001 ,
1)
b10 #
b10 6
0'
0*
b0 !
b0 1
0(
#110000
b101 %
b10100000000 "
b10100000000 3
b101 /
b101 $
b101 4
b1010 ,
b1 !
b1 1
1(
#120000
b1010 %
b101000000000 "
b101000000000 3
b1010 /
b1010 $
b1010 4
b1011 ,
1*
b10 !
b10 1
0(
#130000
b110 %
b11000000000 "
b11000000000 3
b110 /
b110 4
b110 $
b1100 ,
b11 !
b11 1
1(
#140000
b1001 %
b0 /
b1001000000000000 "
b1001000000000000 3
b1001 0
b1001 4
b1001 $
b1101 ,
b11 #
b11 6
1'
0*
b0 !
b0 1
0(
#150000
b101 %
b101000000000000 "
b101000000000000 3
b101 0
b101 $
b101 4
b1110 ,
b1 !
b1 1
1(
#160000
b1010 %
b1010000000000000 "
b1010000000000000 3
b1010 0
b1010 $
b1010 4
b1111 ,
1*
b10 !
b10 1
0(
#170000
b110 %
b110000000000000 "
b110000000000000 3
b110 0
b110 4
b110 $
b10000 ,
b11 !
b11 1
1(
